[
  {
    "id": "1",
    "date": "April 04, 2020",
    "heading": "Welcome to Our New App",
    "text": " Welcome to our 100% renewed app,  Please test and let us know your opinion."
  },
  {
    "id": "2",
    "date": "April 04, 2020",
    "heading": "More Functionalities Soon",
    "text": "Soon, enjoy Auto Sync of products, products stats and more. Keep posted."
  }
]